build/dump.vcd
$date
	Tue Mar  7 14:08:45 2023
$end
$version
	Icarus Verilog
$end
$timescale
	1s
$end
$scope module imuldiv_MulDivReqMsgToBits $end
$var wire 32 ! a [31:0] $end
$var wire 32 " b [31:0] $end
$var wire 3 # func [2:0] $end
$var wire 67 $ bits [66:0] $end
$upscope $end
$scope module imuldiv_MulDivReqMsgToStr $end
$var wire 67 % msg [66:0] $end
$var wire 3 & func [2:0] $end
$var wire 32 ' b [31:0] $end
$var wire 32 ( a [31:0] $end
$var reg 160 ) full_str [159:0] $end
$var reg 16 * tiny_str [15:0] $end
$upscope $end
$scope module tester $end
$var wire 1 + t0_done $end
$var reg 1 , clk $end
$var reg 1024 - next_test_case_num [1023:0] $end
$var reg 1 . t0_reset $end
$var reg 1024 / test_case_num [1023:0] $end
$var reg 2 0 verbose [1:0] $end
$scope module t0 $end
$var wire 1 , clk $end
$var wire 1 + done $end
$var wire 1 . reset $end
$var wire 1 1 src_val $end
$var wire 1 2 src_rdy $end
$var wire 3 3 src_msg_fn [2:0] $end
$var wire 32 4 src_msg_b [31:0] $end
$var wire 32 5 src_msg_a [31:0] $end
$var wire 67 6 src_msg [66:0] $end
$var wire 1 7 src_done $end
$var wire 1 8 sink_val $end
$var wire 1 9 sink_rdy $end
$var wire 64 : sink_msg [63:0] $end
$var wire 1 ; sink_done $end
$var reg 1 < stall_mult1 $end
$scope module msgfrombits $end
$var wire 3 = func [2:0] $end
$var wire 67 > bits [66:0] $end
$var wire 32 ? b [31:0] $end
$var wire 32 @ a [31:0] $end
$upscope $end
$scope module muldiv $end
$var wire 1 , clk $end
$var wire 1 A muldivreq_go $end
$var wire 32 B muldivreq_msg_a [31:0] $end
$var wire 32 C muldivreq_msg_b [31:0] $end
$var wire 3 D muldivreq_msg_fn [2:0] $end
$var wire 1 8 muldivresp_val $end
$var wire 1 . reset $end
$var wire 1 E sign $end
$var wire 1 F stall $end
$var wire 1 < stall_mult1 $end
$var wire 64 G result0 [63:0] $end
$var wire 32 H remainderu [31:0] $end
$var wire 32 I remainder_raw [31:0] $end
$var wire 32 J remainder [31:0] $end
$var wire 32 K quotientu [31:0] $end
$var wire 32 L quotient_raw [31:0] $end
$var wire 32 M quotient [31:0] $end
$var wire 64 N product_raw [63:0] $end
$var wire 64 O product [63:0] $end
$var wire 1 9 muldivresp_rdy $end
$var wire 64 P muldivresp_msg_result [63:0] $end
$var wire 1 1 muldivreq_val $end
$var wire 1 2 muldivreq_rdy $end
$var wire 32 Q b_unsign [31:0] $end
$var wire 32 R a_unsign [31:0] $end
$var reg 32 S a_reg [31:0] $end
$var reg 32 T b_reg [31:0] $end
$var reg 3 U fn_reg [2:0] $end
$var reg 64 V result1_reg [63:0] $end
$var reg 64 W result2_reg [63:0] $end
$var reg 64 X result3_reg [63:0] $end
$var reg 1 Y val0_reg $end
$var reg 1 Z val1_reg $end
$var reg 1 [ val2_reg $end
$var reg 1 \ val3_reg $end
$upscope $end
$scope module sink $end
$var wire 1 , clk $end
$var wire 64 ] msg [63:0] $end
$var wire 1 . reset $end
$var wire 1 8 val $end
$var wire 1 ^ sink_val $end
$var wire 1 _ sink_rdy $end
$var wire 64 ` sink_msg [63:0] $end
$var wire 1 9 rdy $end
$var wire 1 ; done $end
$scope module rand_delay $end
$var wire 1 , clk $end
$var wire 64 a in_msg [63:0] $end
$var wire 1 8 in_val $end
$var wire 64 b out_msg [63:0] $end
$var wire 1 . reset $end
$var wire 1 c zero_cycle_delay $end
$var wire 32 d rand_delay [31:0] $end
$var wire 1 _ out_rdy $end
$var reg 1 9 in_rdy $end
$var reg 1 ^ out_val $end
$var reg 1 e rand_delay_en $end
$var reg 32 f rand_delay_next [31:0] $end
$var reg 32 g rand_num [31:0] $end
$var reg 1 h state $end
$var reg 1 i state_next $end
$scope begin genblk2 $end
$upscope $end
$scope module rand_delay_pf $end
$var wire 1 , clk $end
$var wire 32 j d_p [31:0] $end
$var wire 1 e en_p $end
$var wire 1 . reset_p $end
$var reg 32 k q_np [31:0] $end
$upscope $end
$upscope $end
$scope module sink $end
$var wire 1 , clk $end
$var wire 1 l go $end
$var wire 1 m index_en $end
$var wire 64 n msg [63:0] $end
$var wire 1 . reset $end
$var wire 1 ^ val $end
$var wire 1 _ rdy $end
$var wire 10 o index_next [9:0] $end
$var wire 10 p index [9:0] $end
$var wire 1 ; done $end
$var reg 2 q verbose [1:0] $end
$scope module index_pf $end
$var wire 1 , clk $end
$var wire 10 r d_p [9:0] $end
$var wire 1 m en_p $end
$var wire 1 . reset_p $end
$var reg 10 s q_np [9:0] $end
$upscope $end
$upscope $end
$upscope $end
$scope module src $end
$var wire 1 , clk $end
$var wire 1 2 rdy $end
$var wire 1 . reset $end
$var wire 1 1 val $end
$var wire 1 t src_val $end
$var wire 1 u src_rdy $end
$var wire 67 v src_msg [66:0] $end
$var wire 67 w msg [66:0] $end
$var wire 1 7 done $end
$scope module rand_delay $end
$var wire 1 , clk $end
$var wire 67 x out_msg [66:0] $end
$var wire 1 2 out_rdy $end
$var wire 1 . reset $end
$var wire 1 y zero_cycle_delay $end
$var wire 32 z rand_delay [31:0] $end
$var wire 1 t in_val $end
$var wire 67 { in_msg [66:0] $end
$var reg 1 u in_rdy $end
$var reg 1 1 out_val $end
$var reg 1 | rand_delay_en $end
$var reg 32 } rand_delay_next [31:0] $end
$var reg 32 ~ rand_num [31:0] $end
$var reg 1 !" state $end
$var reg 1 "" state_next $end
$scope begin genblk2 $end
$upscope $end
$scope module rand_delay_pf $end
$var wire 1 , clk $end
$var wire 32 #" d_p [31:0] $end
$var wire 1 | en_p $end
$var wire 1 . reset_p $end
$var reg 32 $" q_np [31:0] $end
$upscope $end
$upscope $end
$scope module src $end
$var wire 1 , clk $end
$var wire 1 %" go $end
$var wire 1 &" index_en $end
$var wire 67 '" msg [66:0] $end
$var wire 1 u rdy $end
$var wire 1 . reset $end
$var wire 1 t val $end
$var wire 10 (" index_next [9:0] $end
$var wire 10 )" index [9:0] $end
$var wire 1 7 done $end
$scope module index_pf $end
$var wire 1 , clk $end
$var wire 10 *" d_p [9:0] $end
$var wire 1 &" en_p $end
$var wire 1 . reset_p $end
$var reg 10 +" q_np [9:0] $end
$upscope $end
$upscope $end
$upscope $end
$upscope $end
$upscope $end
$scope module vc_DFF_nf $end
$var wire 1 ," clk $end
$var wire 1 -" d_p $end
$var reg 1 ." q_np $end
$upscope $end
$scope module vc_DFF_pf $end
$var wire 1 /" clk $end
$var wire 1 0" d_p $end
$var reg 1 1" q_np $end
$upscope $end
$scope module vc_EDFF_nf $end
$var wire 1 2" clk $end
$var wire 1 3" d_n $end
$var wire 1 4" en_n $end
$var reg 1 5" q_pn $end
$upscope $end
$scope module vc_EDFF_pf $end
$var wire 1 6" clk $end
$var wire 1 7" d_p $end
$var wire 1 8" en_p $end
$var reg 1 9" q_np $end
$upscope $end
$scope module vc_ELatch_hl $end
$var wire 1 :" clk $end
$var wire 1 ;" d_n $end
$var wire 1 <" en_p $end
$var reg 1 =" en_latched_pn $end
$var reg 1 >" q_np $end
$upscope $end
$scope module vc_ELatch_ll $end
$var wire 1 ?" clk $end
$var wire 1 @" d_p $end
$var wire 1 A" en_n $end
$var reg 1 B" en_latched_np $end
$var reg 1 C" q_pn $end
$upscope $end
$scope module vc_Latch_hl $end
$var wire 1 D" clk $end
$var wire 1 E" d_n $end
$var reg 1 F" q_np $end
$upscope $end
$scope module vc_Latch_ll $end
$var wire 1 G" clk $end
$var wire 1 H" d_p $end
$var reg 1 I" q_pn $end
$upscope $end
$scope module vc_RDFF_pf $end
$var wire 1 J" clk $end
$var wire 1 K" d_p $end
$var wire 1 L" reset_p $end
$var reg 1 M" q_np $end
$upscope $end
$enddefinitions $end
#0
$dumpvars
xM"
zL"
zK"
zJ"
xI"
zH"
zG"
xF"
zE"
zD"
xC"
xB"
zA"
z@"
z?"
x>"
x="
z<"
z;"
z:"
x9"
z8"
z7"
z6"
x5"
z4"
z3"
z2"
x1"
z0"
z/"
x."
z-"
z,"
b0 +"
b1 *"
b0 )"
b1 ("
bx '"
0&"
0%"
b0 $"
b0 #"
0""
0!"
b0 ~
b0 }
0|
bx {
b0 z
0y
bx x
bx w
bx v
xu
0t
b0 s
b1 r
b10 q
b0 p
b1 o
bx n
0m
0l
b0 k
b1 j
0i
0h
b10 g
b1 f
xe
b0 d
0c
bx b
bx a
bx `
0_
0^
bx ]
x\
x[
xZ
xY
bx X
bx W
bx V
bx U
bx T
bx S
bx R
bx Q
bx P
bx O
bx N
bx M
bx L
bx K
bx J
bx I
bx H
bx G
xF
xE
bx D
bx C
bx B
0A
bx @
bx ?
bx >
bx =
0<
1;
bx :
09
x8
17
bx 6
bx 5
bx 4
bx 3
x2
01
b10 0
b0 /
1.
b0 -
1,
1+
b11111100111111 *
b111010101101110011001000110010101100110011010010110111001100101011001000010000001100110011101010110111001100011 )
bz (
bz '
bz &
bz %
bz $
bz #
bz "
bz !
$end
#5
0,
#10
0u
b1 ~
1,
#15
0,
#20
b1 }
b1 #"
x^
b0 f
b0 j
b10 ~
b0 g
1,
#25
0,
#30
0^
b1 g
1,
#35
0,
#40
b0 }
b0 #"
x^
b1 ~
b0 g
1,
#45
0,
#50
0^
b1 f
b1 j
xu
b10 g
b0 ~
1,
#55
0,
#60
0u
x^
b0 f
b0 j
b1 ~
b0 g
1,
#65
0,
#70
1,
#75
0,
#80
xu
0^
b0 ~
b1 g
1,
#85
0,
#90
x^
b0 g
1,
#95
0,
#100
xy
xA
x&"
x%"
11
x|
0""
0+
b0 4
b0 ?
b0 C
b0 5
b0 @
b0 B
b0 3
b0 =
b0 D
0^
b1 f
b1 j
1_
0;
1t
07
b0 6
b0 >
b0 w
b0 x
b0 v
b0 {
b0 '"
b10 g
b1 /
1,
b1 -
#105
0,
#110
0|
1y
1&"
1%"
1A
1u
xm
xl
12
0F
x^
19
b0 f
b0 j
xc
b0 g
1,
#115
0,
#120
0A
0&"
0%"
1""
0m
0l
x2
xF
01
0u
1|
0y
0^
09
0c
b1 ~
b1 g
1,
#125
0,
0.
#130
xA
x&"
x%"
b1 f
b1 j
11
xu
b11111111111111111111111111111111 }
b11111111111111111111111111111111 #"
0|
b10 g
1!"
b10 ~
1,
#135
0,
#140
b0 f
b0 j
b1 ~
b1 g
1,
#145
0,
#150
1,
#155
0,
#160
b1 f
b1 j
b10 g
1,
#165
0,
#170
1&"
1%"
1A
1u
0""
xm
xl
12
0F
x^
19
b0 f
b0 j
xc
1y
b0 g
b0 ~
1,
#175
0,
#180
b0 G
b0 O
0E
b1 4
b1 ?
b1 C
b1 5
b1 @
b1 B
b0 }
b0 #"
b0 N
b0 Q
b0 R
b10 ("
b10 *"
b100000000000000000000000000000001 6
b100000000000000000000000000000001 >
b100000000000000000000000000000001 w
b100000000000000000000000000000001 x
b100000000000000000000000000000001 v
b100000000000000000000000000000001 {
b100000000000000000000000000000001 '"
b1 )"
b1 +"
0!"
1Y
b0 T
b0 S
b0 U
1,
#185
0,
#190
b1 G
b1 O
b1 M
b0 J
0A
0&"
0%"
1""
b1 N
b1 L
b0 I
b1 Q
b1 R
01
0u
1|
0y
b11111111111111111111111111111111 5
b11111111111111111111111111111111 @
b11111111111111111111111111111111 B
1Z
b0 V
b1 K
b0 H
b1 T
b1 S
b1 ~
b11 ("
b11 *"
b1111111111111111111111111111111100000000000000000000000000000001 6
b1111111111111111111111111111111100000000000000000000000000000001 >
b1111111111111111111111111111111100000000000000000000000000000001 w
b1111111111111111111111111111111100000000000000000000000000000001 x
b1111111111111111111111111111111100000000000000000000000000000001 v
b1111111111111111111111111111111100000000000000000000000000000001 {
b1111111111111111111111111111111100000000000000000000000000000001 '"
b10 )"
b10 +"
1,
#195
0,
#200
1A
1&"
1%"
11
1u
b11111111111111111111111111111111 }
b11111111111111111111111111111111 #"
0|
0""
1!"
0Y
1[
b0 W
b1 V
1,
#205
0,
#210
0e
b1111111111111111111111111111111111111111111111111111111111111111 G
1c
1m
1l
1E
b1111111111111111111111111111111111111111111111111111111111111111 O
b11111111111111111111111111111111 M
1^
b1 N
b1 L
b1 R
b0 }
b0 #"
1y
b11111111111111111111111111111111 4
b11111111111111111111111111111111 ?
b11111111111111111111111111111111 C
b1 5
b1 @
b1 B
18
1\
0Z
b0 `
b0 b
b0 n
b0 :
b0 P
b0 X
b0 ]
b0 a
b1 W
1Y
b11111111111111111111111111111111 K
b11111111111111111111111111111111 S
0!"
b0 ~
b100 ("
b100 *"
b111111111111111111111111111111111 6
b111111111111111111111111111111111 >
b111111111111111111111111111111111 w
b111111111111111111111111111111111 x
b111111111111111111111111111111111 v
b111111111111111111111111111111111 {
b111111111111111111111111111111111 '"
b11 )"
b11 +"
1,
#215
0,
#220
b1111111111111111111111111111111111111111111111111111111111111111 G
b1111111111111111111111111111111111111111111111111111111111111111 O
0A
0&"
0%"
1""
b1 R
b11111111111111111111111111111111 5
b11111111111111111111111111111111 @
b11111111111111111111111111111111 B
01
0u
b1 }
b1 #"
1|
0y
b1 N
b1 L
b0 I
b1 Q
b101 ("
b101 *"
b1111111111111111111111111111111111111111111111111111111111111111 6
b1111111111111111111111111111111111111111111111111111111111111111 >
b1111111111111111111111111111111111111111111111111111111111111111 w
b1111111111111111111111111111111111111111111111111111111111111111 x
b1111111111111111111111111111111111111111111111111111111111111111 v
b1111111111111111111111111111111111111111111111111111111111111111 {
b1111111111111111111111111111111111111111111111111111111111111111 '"
b100 )"
b100 +"
b10 ~
b1 H
b11111111111111111111111111111111 T
b0 K
b1 S
0[
1Z
b1 `
b1 b
b1 n
b1 :
b1 P
b1 X
b1 ]
b1 a
b1111111111111111111111111111111111111111111111111111111111111111 V
b10 o
b10 r
b1 p
b1 s
1,
#225
0,
#230
0m
0l
0c
0^
09
b1 f
b1 j
b0 }
b0 #"
b11 o
b11 r
b10 p
b10 s
b10 g
08
0\
1[
b1111111111111111111111111111111111111111111111111111111111111111 W
0Y
1!"
b1 z
b1 $"
1,
#235
0,
#240
11
b11111111111111111111111111111111 }
b11111111111111111111111111111111 #"
0|
02
1F
1i
b0 f
b0 j
1e
b1 ~
b0 z
b0 $"
18
1\
0Z
b1111111111111111111111111111111111111111111111111111111111111111 `
b1111111111111111111111111111111111111111111111111111111111111111 b
b1111111111111111111111111111111111111111111111111111111111111111 n
b1111111111111111111111111111111111111111111111111111111111111111 :
b1111111111111111111111111111111111111111111111111111111111111111 P
b1111111111111111111111111111111111111111111111111111111111111111 X
b1111111111111111111111111111111111111111111111111111111111111111 ]
b1111111111111111111111111111111111111111111111111111111111111111 a
b1 g
1,
#245
0,
#250
1&"
1%"
1A
1u
0""
1m
1l
12
0F
0i
1^
19
b11111111111111111111111111111111 f
b11111111111111111111111111111111 j
0e
1h
b10 g
b10 ~
1,
#255
0,
#260
b1 M
b1 G
0&"
0%"
b1 O
0A
0u
0E
0m
0l
02
1F
b11 4
b11 ?
b11 C
b1000 5
b1000 @
b1000 B
0y
b0 }
b0 #"
1|
1""
b1 N
b1 L
b1 R
0^
09
b0 f
b0 j
1e
1i
b110 ("
b110 *"
b100000000000000000000000000000000011 6
b100000000000000000000000000000000011 >
b100000000000000000000000000000000011 w
b100000000000000000000000000000000011 x
b100000000000000000000000000000000011 v
b100000000000000000000000000000000011 {
b100000000000000000000000000000000011 '"
b101 )"
b101 +"
b0 ~
0!"
1Y
b1 K
b0 H
b11111111111111111111111111111111 S
0[
b1 g
0h
b100 o
b100 r
b11 p
b11 s
1,
#265
0,
#270
1&"
1%"
1A
1u
0""
1m
1l
12
0F
0i
1^
19
b11111111111111111111111111111111 f
b11111111111111111111111111111111 j
0e
1c
b11111111111111111111111111111111 }
b11111111111111111111111111111111 #"
0|
1h
b0 g
1!"
b10 ~
1,
#275
0,
#280
b11000 G
b10 J
b11000 O
b10 M
0A
0&"
0%"
b10 I
b11 Q
b11000 N
b10 L
b1000 R
0m
0l
b1000 4
b1000 ?
b1000 C
b11111111111111111111111111111000 5
b11111111111111111111111111111000 @
b11111111111111111111111111111000 B
01
0u
b0 }
b0 #"
1|
1""
0c
0^
09
b0 f
b0 j
b111 ("
b111 *"
b1111111111111111111111111111100000000000000000000000000000001000 6
b1111111111111111111111111111100000000000000000000000000000001000 >
b1111111111111111111111111111100000000000000000000000000000001000 w
b1111111111111111111111111111100000000000000000000000000000001000 x
b1111111111111111111111111111100000000000000000000000000000001000 v
b1111111111111111111111111111100000000000000000000000000000001000 {
b1111111111111111111111111111100000000000000000000000000000001000 '"
b110 )"
b110 +"
b1 ~
0!"
b11 T
b10 K
b10 H
b1000 S
08
0\
1Z
b1 V
b1 g
0h
b101 o
b101 r
b100 p
b100 s
1,
#285
0,
#290
1A
1&"
1%"
0""
11
1u
b11111111111111111111111111111111 }
b11111111111111111111111111111111 #"
0|
1y
1[
b1 W
b11000 V
0Y
1!"
b0 ~
1,
#295
0,
#300
b1111111111111111111111111111111111111111111111111111111111000000 G
1|
1""
0&"
0%"
1E
b1111111111111111111111111111111111111111111111111111111111000000 O
b11111111111111111111111111111111 M
b0 J
0A
b11111111111111111111111111111000 4
b11111111111111111111111111111000 ?
b11111111111111111111111111111000 C
0y
01
0u
b1 }
b1 #"
b0 I
b1000 Q
b1000000 N
b1 L
b1000 R
02
1F
1e
1i
b1000 ("
b1000 *"
b1111111111111111111111111111100011111111111111111111111111111000 6
b1111111111111111111111111111100011111111111111111111111111111000 >
b1111111111111111111111111111100011111111111111111111111111111000 w
b1111111111111111111111111111100011111111111111111111111111111000 x
b1111111111111111111111111111100011111111111111111111111111111000 v
b1111111111111111111111111111100011111111111111111111111111111000 {
b1111111111111111111111111111100011111111111111111111111111111000 '"
b111 )"
b111 +"
b10 ~
0!"
1Y
b0 H
b1000 T
b11111111111111111111111111111 K
b11111111111111111111111111111000 S
18
1\
0Z
b1 `
b1 b
b1 n
b1 :
b1 P
b1 X
b1 ]
b1 a
b11000 W
1,
#305
0,
#310
1y
1m
1l
12
0F
0i
1^
19
b11111111111111111111111111111111 f
b11111111111111111111111111111111 j
0e
b0 }
b0 #"
1h
b10 g
1!"
b1 z
b1 $"
b0 ~
1,
#315
0,
#320
0&"
0%"
0m
0l
02
1F
0y
1""
11
0u
b11111111111111111111111111111111 }
b11111111111111111111111111111111 #"
0|
0^
09
b1 f
b1 j
1e
1i
b1 ~
b0 z
b0 $"
0Y
0[
1Z
b11000 `
b11000 b
b11000 n
b11000 :
b11000 P
b11000 X
b11000 ]
b11000 a
b1111111111111111111111111111111111111111111111111111111111000000 V
0h
b110 o
b110 r
b101 p
b101 s
1,
#325
0,
#330
b0 f
b0 j
1c
1h
b1 d
b1 k
b0 g
b0 ~
1,
#335
0,
#340
1y
1&"
1%"
1A
1u
0""
1m
1l
12
0F
0i
1^
19
b11111111111111111111111111111111 f
b11111111111111111111111111111111 j
0e
b0 d
b0 k
1,
#345
0,
#350
b1000000 G
b1000000 O
b1 M
b0 J
0m
0l
0E
0A
0&"
0%"
0c
0^
09
b0 f
b0 j
b1000000 N
b1 L
b0 I
b1000 Q
1""
01
0u
b0 }
b0 #"
1|
0y
b10000000000000000000000000000 4
b10000000000000000000000000000 ?
b10000000000000000000000000000 C
b1101111010101101101111101110 5
b1101111010101101101111101110 @
b1101111010101101101111101110 B
b111 o
b111 r
b110 p
b110 s
0h
b1 g
08
0\
1[
0Z
b1111111111111111111111111111111111111111111111111111111111000000 W
1Y
b1 K
b11111111111111111111111111111000 T
0!"
b1 ~
b1001 ("
b1001 *"
b110111101010110110111110111000010000000000000000000000000000 6
b110111101010110110111110111000010000000000000000000000000000 >
b110111101010110110111110111000010000000000000000000000000000 w
b110111101010110110111110111000010000000000000000000000000000 x
b110111101010110110111110111000010000000000000000000000000000 v
b110111101010110110111110111000010000000000000000000000000000 {
b110111101010110110111110111000010000000000000000000000000000 '"
b1000 )"
b1000 +"
1,
#355
0,
#360
1A
1&"
1%"
1c
1m
1l
11
1u
b11111111111111111111111111111111 }
b11111111111111111111111111111111 #"
0|
0""
0i
1^
19
0e
1!"
0Y
18
1\
0[
1Z
b1111111111111111111111111111111111111111111111111111111111000000 `
b1111111111111111111111111111111111111111111111111111111111000000 b
b1111111111111111111111111111111111111111111111111111111111000000 n
b1111111111111111111111111111111111111111111111111111111111000000 :
b1111111111111111111111111111111111111111111111111111111111000000 P
b1111111111111111111111111111111111111111111111111111111111000000 X
b1111111111111111111111111111111111111111111111111111111111000000 ]
b1111111111111111111111111111111111111111111111111111111111000000 a
b1000000 V
b0 g
1,
#365
0,
#370
b0 M
b11011110101011011011111011100000000000000000000000000000 G
b11011110101011011011111011100000000000000000000000000000 O
0m
0l
b10000000000000000000000000000 Q
b1101111010101101101111101110 J
b11011110101011011011111011100000000000000000000000000000 N
b0 L
b1101111010101101101111101110 I
b1101111010101101101111101110 R
0A
0&"
0%"
0c
0^
09
b1 f
b1 j
01
0u
b0 }
b0 #"
1|
1""
b11011110101011011011111011101111 5
b11011110101011011011111011101111 @
b11011110101011011011111011101111 B
b1000 o
b1000 r
b111 p
b111 s
b10 g
08
0\
1[
0Z
b1000000 W
1Y
b10000000000000000000000000000 T
b0 K
b1101111010101101101111101110 H
b1101111010101101101111101110 S
0!"
b1010 ("
b1010 *"
b1101111010101101101111101110111100010000000000000000000000000000 6
b1101111010101101101111101110111100010000000000000000000000000000 >
b1101111010101101101111101110111100010000000000000000000000000000 w
b1101111010101101101111101110111100010000000000000000000000000000 x
b1101111010101101101111101110111100010000000000000000000000000000 v
b1101111010101101101111101110111100010000000000000000000000000000 {
b1101111010101101101111101110111100010000000000000000000000000000 '"
b1001 )"
b1001 +"
1,
#375
0,
#380
11
b11111111111111111111111111111111 }
b11111111111111111111111111111111 #"
0|
02
1F
1e
1i
1!"
0Y
18
1\
0[
1Z
b1000000 `
b1000000 b
b1000000 n
b1000000 :
b1000000 P
b1000000 X
b1000000 ]
b1000000 a
b11011110101011011011111011100000000000000000000000000000 V
1,
#385
0,
#390
b0 f
b0 j
1h
b1 d
b1 k
b0 ~
1,
#395
0,
#400
1&"
1%"
1A
1u
0""
1m
1l
12
0F
0i
1^
19
b11111111111111111111111111111111 f
b11111111111111111111111111111111 j
0e
b10 ~
b0 d
b0 k
1,
#405
0,
#410
b1111110111101010110110111110111011110000000000000000000000000000 G
0m
0l
1E
b1111110111101010110110111110111011110000000000000000000000000000 O
b11111111111111111111111111111110 M
b11111110101011011011111011101111 J
0A
0^
b0 f
b0 j
b1000010101001001000001000100010000000000000000000000000000 N
b10 L
b1010100100100000100010001 I
b100001010100100100000100010001 R
bx 4
bx ?
bx C
bx 5
bx @
bx B
bx 3
bx =
bx D
0&"
0%"
01
0u
b1 }
b1 #"
b1001 o
b1001 r
b1000 p
b1000 s
0h
b0 g
08
0\
1[
0Z
b11011110101011011011111011100000000000000000000000000000 W
1Y
b1101 K
b1110101011011011111011101111 H
b11011110101011011011111011101111 S
0!"
b1011 ("
b1011 *"
bx 6
bx >
bx w
bx x
bx v
bx {
bx '"
0t
17
b1010 )"
b1010 +"
1,
#415
0,
#420
b0 }
b0 #"
02
1F
1i
09
b1 f
b1 j
1e
b1 ~
0Y
18
1\
0[
1Z
b11011110101011011011111011100000000000000000000000000000 `
b11011110101011011011111011100000000000000000000000000000 b
b11011110101011011011111011100000000000000000000000000000 n
b11011110101011011011111011100000000000000000000000000000 :
b11011110101011011011111011100000000000000000000000000000 P
b11011110101011011011111011100000000000000000000000000000 X
b11011110101011011011111011100000000000000000000000000000 ]
b11011110101011011011111011100000000000000000000000000000 a
b1111110111101010110110111110111011110000000000000000000000000000 V
b10 g
1,
#425
0,
#430
b0 f
b0 j
1c
b1 }
b1 #"
1h
b1 d
b1 k
b0 g
b10 ~
1,
#435
0,
#440
1u
1m
1l
12
0F
b0 }
b0 #"
0i
1^
19
b11111111111111111111111111111111 f
b11111111111111111111111111111111 j
0e
b0 ~
b0 d
b0 k
1,
#445
0,
#450
0c
0m
0l
0^
b0 f
b0 j
0u
b1010 o
b1010 r
b1001 p
b1001 s
0h
08
0\
1[
0Z
b1111110111101010110110111110111011110000000000000000000000000000 W
b1 ~
1,
#455
0,
#460
1c
1m
1l
1^
0e
0i
18
1\
0[
b1111110111101010110110111110111011110000000000000000000000000000 `
b1111110111101010110110111110111011110000000000000000000000000000 b
b1111110111101010110110111110111011110000000000000000000000000000 n
b1111110111101010110110111110111011110000000000000000000000000000 :
b1111110111101010110110111110111011110000000000000000000000000000 P
b1111110111101010110110111110111011110000000000000000000000000000 X
b1111110111101010110110111110111011110000000000000000000000000000 ]
b1111110111101010110110111110111011110000000000000000000000000000 a
1,
#465
0,
#470
0l
0m
1+
0c
0^
09
b1 f
b1 j
b1 }
b1 #"
b1011 o
b1011 r
0_
1;
b1010 p
b1010 s
b10 g
08
0\
b10 ~
1,
#475
0,
#480
b0 }
b0 #"
b0 f
b0 j
b1 ~
b0 g
1,
#485
0,
#490
b1 f
b1 j
b10 g
1,
#495
0,
#500
b1 }
b1 #"
b10 ~
1,
#505
0,
#510
b0 f
b0 j
b1 g
1,
#515
0,
#520
b0 }
b0 #"
b1 ~
b0 g
1,
#525
0,
#530
1,
#535
0,
#540
1u
b1 f
b1 j
b0 ~
b10 g
1,
#545
0,
#550
b0 f
b0 j
b1 g
1,
#555
0,
#560
0u
b1 }
b1 #"
b10 ~
b0 g
1,
#565
0,
#570
1,
#575
0,
#580
b1 g
1,
#585
0,
#590
b0 }
b0 #"
b1 ~
1,
#595
0,
#600
b1 }
b1 #"
b1 f
b1 j
b10 ~
b10 g
1,
#605
0,
#610
b0 }
b0 #"
b1 ~
1,
#615
0,
#620
b1 }
b1 #"
b0 f
b0 j
b10 ~
b1 g
1,
#625
0,
#630
1u
b0 }
b0 #"
b0 ~
1,
#635
0,
#640
0u
b1 }
b1 #"
b10 ~
1,
#645
0,
#650
1u
b0 }
b0 #"
b0 g
b0 ~
1,
#655
0,
#660
0u
b1 }
b1 #"
b1 f
b1 j
b10 ~
b10 g
1,
#665
0,
#670
b0 f
b0 j
b0 }
b0 #"
b0 g
b1 ~
1,
#675
0,
#680
1u
b1 f
b1 j
b0 ~
b10 g
1,
#685
0,
#690
b0 f
b0 j
0u
b1 }
b1 #"
b1 g
b10 ~
1,
#695
0,
#700
b0 }
b0 #"
b1 f
b1 j
b1 ~
b10 g
1,
#705
0,
#710
b0 f
b0 j
1u
b1 g
b0 ~
1,
#715
0,
#720
0u
b1 ~
1,
#725
0,
#730
1,
#735
0,
#740
1u
b0 ~
b0 g
1,
#745
0,
#750
b1 g
1,
#755
0,
#760
b0 g
1,
#765
0,
#770
0u
b1 }
b1 #"
b10 ~
1,
#775
0,
#780
b0 }
b0 #"
b1 f
b1 j
b1 ~
b10 g
1,
#785
0,
#790
b0 f
b0 j
b1 }
b1 #"
b1 g
b10 ~
1,
#795
0,
#800
b0 }
b0 #"
b1 ~
1,
#805
0,
#810
b1 }
b1 #"
b10 ~
1,
#815
0,
#820
b0 }
b0 #"
b1 f
b1 j
b1 ~
b10 g
1,
#825
0,
#830
1,
#835
0,
#840
b0 f
b0 j
b0 g
1,
#845
0,
#850
1u
b0 ~
1,
#855
0,
#860
b1 f
b1 j
b10 g
1,
#865
0,
#870
b0 f
b0 j
0u
b1 }
b1 #"
b1 g
b10 ~
1,
#875
0,
#880
b0 g
1,
#885
0,
#890
1u
b0 }
b0 #"
b0 ~
1,
#895
0,
#900
0u
b1 }
b1 #"
b10 ~
b1 g
1,
#905
0,
#910
b1 f
b1 j
1u
b0 }
b0 #"
b10 g
b0 ~
1,
#915
0,
#920
b0 f
b0 j
b1 g
1,
#925
0,
#930
b1 f
b1 j
0u
b10 g
b1 ~
1,
#935
0,
#940
b1 }
b1 #"
b0 f
b0 j
b10 ~
b0 g
1,
#945
0,
#950
b0 }
b0 #"
b1 ~
1,
#955
0,
#960
b1 }
b1 #"
b1 f
b1 j
b10 ~
b10 g
1,
#965
0,
#970
1,
#975
0,
#980
1u
b0 }
b0 #"
b0 f
b0 j
b0 ~
b0 g
1,
#985
0,
#990
b1 f
b1 j
0u
b1 }
b1 #"
b10 g
b10 ~
1,
#995
0,
#1000
b0 f
b0 j
b0 g
1,
#1005
0,
#1010
b1 g
1,
#1015
0,
#1020
b0 }
b0 #"
b1 ~
1,
#1025
0,
#1030
1u
b0 g
b0 ~
1,
#1035
0,
#1040
0u
b1 }
b1 #"
b1 f
b1 j
b10 ~
b10 g
1,
#1045
0,
#1050
1,
#1055
0,
#1060
b0 }
b0 #"
b0 f
b0 j
b1 ~
b0 g
1,
#1065
0,
#1070
1,
#1075
0,
#1080
1u
b0 ~
b1 g
1,
#1085
0,
#1090
0u
b0 g
b1 ~
1,
#1095
0,
#1100
b1 }
b1 #"
b1 f
b1 j
b10 ~
b10 g
1,
#1105
0,
#1110
1u
b0 }
b0 #"
b0 ~
1,
#1115
0,
#1120
b0 f
b0 j
b0 g
1,
#1125
0,
#1130
0u
b1 }
b1 #"
b10 ~
1,
#1135
0,
#1140
1u
b0 }
b0 #"
b1 f
b1 j
b0 ~
b10 g
1,
#1145
0,
#1150
b0 f
b0 j
0u
b0 g
b1 ~
1,
#1155
0,
#1160
b1 g
1,
#1165
0,
#1170
b1 f
b1 j
1u
b10 g
b0 ~
1,
#1175
0,
#1180
0u
b1 }
b1 #"
b0 f
b0 j
b10 ~
b1 g
1,
#1185
0,
#1190
1u
b0 }
b0 #"
b0 g
b0 ~
1,
#1195
0,
#1200
1,
#1205
0,
#1210
b1 f
b1 j
0u
b1 }
b1 #"
b10 g
b10 ~
1,
#1215
0,
#1220
b0 f
b0 j
b1 g
1,
#1225
0,
#1230
b0 g
1,
#1235
0,
#1240
b0 }
b0 #"
b1 f
b1 j
b1 ~
b10 g
1,
#1245
0,
